%YAML 1.1
%TAG !u! tag:unity3d.com,2011:
--- !u!21 &2100000
Material:
  serializedVersion: 6
  m_ObjectHideFlags: 0
  m_CorrespondingSourceObject: {fileID: 0}
  m_PrefabInternal: {fileID: 0}
  m_Name: doors_windows1
  m_Shader: {fileID: 23, guid: 0000000000000000f000000000000000, type: 0}
  m_ShaderKeywords: 
  m_LightmapFlags: 5
  m_EnableInstancingVariants: 0
  m_DoubleSidedGI: 0
  m_CustomRenderQueue: -1
  stringTagMap: {}
  disabledShaderPasses: []
  m_SavedProperties:
    serializedVersion: 3
    m_TexEnvs:
    - _BumpMap:
        m_Texture: {fileID: 2800000, guid: 4729c64b856eaf4419511afad805138a, type: 3}
        m_Scale: {x: 1, y: 1}
        m_Offset: {x: 0, y: 0}
    - _Cube:
        m_Texture: {fileID: 8900000, guid: e48f9c34b2a6b9248a7ed4057962fb3e, type: 3}
        m_Scale: {x: 1, y: 1}
        m_Offset: {x: 0, y: 0}
    - _MainTex:
        m_Texture: {fileID: 2800000, guid: 6893c3518f0fef542a3d7d5031eaeed2, type: 3}
        m_Scale: {x: 1, y: 1}
        m_Offset: {x: 0, y: 0}
    m_Floats:
    - _Shininess: 0.01
    m_Colors:
    - _Color: {r: 0.70149255, g: 0.70149255, b: 0.70149255, a: 1}
    - _ReflectColor: {r: 0.5223881, g: 0.5223881, b: 0.5223881, a: 0.5019608}
    - _SpecColor: {r: 0, g: 0, b: 0, a: 1}
--- !u!1002 &2100001
EditorExtensionImpl:
  serializedVersion: 6
